<svg width="34" height="25" viewBox="0 0 34 25" fill="none" xmlns="http://www.w3.org/2000/svg">
<path fill-rule="evenodd" clip-rule="evenodd" d="M0 3.74023H33.9489V8.10367H0V3.74023Z" fill="url(#paint0_linear)"/>
<path fill-rule="evenodd" clip-rule="evenodd" d="M32.0319 0H1.91681C0.860126 0 0 0.838963 0 1.87008V23.0636C0 24.0945 0.860126 24.9335 1.91695 24.9335H19.8078H32.0321C33.0889 24.9335 33.9489 24.0945 33.9489 23.0634V1.87008C33.9489 0.838963 33.0888 0 32.0319 0ZM32.5376 22.9272C32.5376 23.2712 32.2514 23.5506 31.8987 23.5506H19.8078H17.8909H3.96723H2.05028C1.69764 23.5506 1.41139 23.2713 1.41139 22.9272V2.00644C1.41139 1.66296 1.69764 1.38304 2.05028 1.38304H31.8987C32.2514 1.38304 32.5376 1.66296 32.5376 2.00644V22.9272Z" fill="url(#paint1_linear)"/>
<path fill-rule="evenodd" clip-rule="evenodd" d="M25.2926 13.8242C24.4574 13.8242 23.6856 14.0891 23.0556 14.5335C22.4065 14.0754 21.632 13.8242 20.8198 13.8242C18.7055 13.8242 16.9861 15.5016 16.9861 17.5642C16.9861 19.6269 18.7055 21.3043 20.8198 21.3043C21.632 21.3043 22.4063 21.0531 23.0549 20.595C23.6856 21.0394 24.4574 21.3043 25.2926 21.3043C27.4069 21.3043 29.1264 19.6269 29.1264 17.5642C29.1264 15.5016 27.4069 13.8242 25.2926 13.8242ZM18.264 17.5642C18.264 16.1891 19.4102 15.0709 20.8198 15.0709C21.2927 15.0709 21.745 15.2031 22.1412 15.4392C21.7118 16.0432 21.4588 16.775 21.4588 17.5642C21.4588 18.3535 21.7118 19.0846 22.1412 19.6886C21.7451 19.9249 21.2927 20.0576 20.8198 20.0576C19.4104 20.0576 18.264 18.9394 18.264 17.5642ZM25.2926 20.0576C23.883 20.0576 22.7368 18.9394 22.7368 17.5642C22.7368 16.1891 23.883 15.0709 25.2926 15.0709C26.7022 15.0709 27.8484 16.1891 27.8484 17.5642C27.8484 18.9394 26.7021 20.0576 25.2926 20.0576Z" fill="url(#paint2_linear)"/>
<defs>
<linearGradient id="paint0_linear" x1="-16.9744" y1="5.92195" x2="-15.871" y2="14.507" gradientUnits="userSpaceOnUse">
<stop stop-color="#5C2774"/>
<stop offset="0.499685" stop-color="#335CC5"/>
<stop offset="1" stop-color="#637FFD"/>
</linearGradient>
<linearGradient id="paint1_linear" x1="-16.9744" y1="12.4668" x2="6.81686" y2="44.8604" gradientUnits="userSpaceOnUse">
<stop stop-color="#5C2774"/>
<stop offset="0.499685" stop-color="#335CC5"/>
<stop offset="1" stop-color="#637FFD"/>
</linearGradient>
<linearGradient id="paint2_linear" x1="10.9159" y1="17.5642" x2="17.597" y2="28.4079" gradientUnits="userSpaceOnUse">
<stop stop-color="#5C2774"/>
<stop offset="0.499685" stop-color="#335CC5"/>
<stop offset="1" stop-color="#637FFD"/>
</linearGradient>
</defs>
</svg>
