<svg width="34" height="32" viewBox="0 0 34 32" fill="none" xmlns="http://www.w3.org/2000/svg">
<path fill-rule="evenodd" clip-rule="evenodd" d="M21.1709 9.34842C20.9763 9.15105 20.6612 9.15105 20.4666 9.34842L19.2863 10.5458C19.0918 10.7432 19.0918 11.0632 19.2863 11.2603C19.3836 11.3589 19.511 11.4084 19.6386 11.4084C19.766 11.4084 19.8933 11.3589 19.9906 11.2603L21.1711 10.0629C21.3654 9.86553 21.3654 9.54579 21.1709 9.34842ZM23.4767 9.29263C23.2821 9.09526 22.9667 9.09526 22.7722 9.29263L20.4116 11.6874C20.2171 11.8847 20.2171 12.2047 20.4116 12.4018C20.5089 12.5005 20.6363 12.55 20.7639 12.55C20.8913 12.55 21.0186 12.5005 21.1159 12.4018L23.4767 10.0071C23.6712 9.80974 23.6712 9.48974 23.4767 9.29263ZM9.16121 23.8153C9.25848 23.9139 9.38585 23.9632 9.51347 23.9632C9.64084 23.9632 9.76846 23.9139 9.86574 23.8153L12.2263 21.4203C12.4208 21.2229 12.4208 20.9032 12.2263 20.7058C12.032 20.5084 11.7166 20.5084 11.522 20.7058L9.16147 23.1005C8.96666 23.2982 8.96666 23.6179 9.16121 23.8153ZM9.56847 21.6242C9.69609 21.6242 9.82346 21.575 9.92073 21.4763L11.101 20.2787C11.2955 20.0816 11.2955 19.7616 11.101 19.5642C10.9064 19.3668 10.5913 19.3668 10.3967 19.5642L9.21646 20.7616C9.02191 20.9589 9.02191 21.2789 9.21646 21.4763C9.31374 21.575 9.4411 21.6242 9.56847 21.6242ZM23.0134 19.1584C20.6217 19.1584 18.676 21.1324 18.676 23.5587C18.676 25.985 20.6217 27.9589 23.0134 27.9589C25.4051 27.9589 27.3508 25.985 27.3508 23.5587C27.3508 21.1324 25.4051 19.1584 23.0134 19.1584ZM23.0134 26.9484C21.1711 26.9484 19.6721 25.4279 19.6721 23.5587C19.6721 21.6897 21.1711 20.1689 23.0134 20.1689C24.8559 20.1689 26.3547 21.6897 26.3547 23.5587C26.3547 25.4279 24.8559 26.9484 23.0134 26.9484ZM17.6817 17.2218C18.0939 16.6782 18.056 15.8937 17.5652 15.3958C17.0319 14.8547 16.1642 14.8547 15.6309 15.3958L15.1775 15.8561C15.0325 16.0032 14.7967 16.0029 14.6517 15.8561C14.5067 15.7089 14.5067 15.4697 14.6517 15.3226L15.5925 14.3682C15.7868 14.1711 15.7868 13.8511 15.5925 13.6537C15.3977 13.4566 15.0825 13.4566 14.888 13.6537L14.5261 14.0208L14.3609 13.8532C14.1663 13.6555 13.8509 13.6558 13.6566 13.8532C13.4621 14.0503 13.4621 14.3703 13.6566 14.5676L13.8309 14.7445C13.4187 15.2882 13.4566 16.0726 13.9474 16.5705C14.4807 17.1116 15.3484 17.1116 15.8817 16.5705L16.3352 16.1105C16.4804 15.9634 16.7162 15.9634 16.861 16.1103C17.006 16.2574 17.006 16.4966 16.861 16.6437L15.9201 17.5979C15.7258 17.7953 15.7258 18.1153 15.9201 18.3126C16.0174 18.4111 16.145 18.4605 16.2724 18.4605C16.4 18.4605 16.5274 18.4113 16.6246 18.3126L16.9865 17.9455L17.1517 18.1132C17.249 18.2118 17.3764 18.2611 17.504 18.2611C17.6314 18.2611 17.7587 18.2118 17.856 18.1132C18.0506 17.9158 18.0506 17.5961 17.856 17.3987L17.6817 17.2218ZM23.3343 23.0534H22.6928C22.4879 23.0534 22.3211 22.8842 22.3211 22.6763C22.3211 22.4684 22.4879 22.2992 22.6928 22.2992H24.0232C24.2982 22.2992 24.5213 22.0729 24.5213 21.7939C24.5213 21.5147 24.2982 21.2887 24.0232 21.2887H23.5114V21.0513C23.5114 20.7724 23.2886 20.5461 23.0134 20.5461C22.7384 20.5461 22.5154 20.7724 22.5154 21.0513V21.3016C21.8448 21.3903 21.325 21.9721 21.325 22.6763C21.325 23.4413 21.9384 24.0639 22.6928 24.0639H23.3343C23.5392 24.0639 23.706 24.2332 23.706 24.4411C23.706 24.6489 23.5392 24.8182 23.3343 24.8182H22.0038C21.7289 24.8182 21.5058 25.0445 21.5058 25.3234C21.5058 25.6024 21.7289 25.8287 22.0038 25.8287H22.5154V26.0658C22.5154 26.3447 22.7384 26.5711 23.0134 26.5711C23.2886 26.5711 23.5114 26.3447 23.5114 26.0658V25.8155C24.182 25.7268 24.7021 25.145 24.7021 24.4411C24.7018 23.6758 24.0883 23.0534 23.3343 23.0534ZM31.5035 11.7558C31.5632 10.8382 31.2327 9.92947 30.5866 9.27368L22.3698 0.937895C21.1372 -0.312632 19.1315 -0.312632 17.8988 0.937895L17.1224 1.72553C16.9279 1.92289 16.9279 2.24289 17.1224 2.44C17.317 2.63737 17.6324 2.63737 17.8267 2.44L18.6031 1.65237C19.4474 0.795789 20.8212 0.795789 21.6656 1.65237L29.8823 9.98816C30.191 10.3016 30.3949 10.6992 30.4761 11.1247C29.667 10.7311 28.7614 10.5103 27.8058 10.5103C27.3793 10.5103 26.963 10.5542 26.5604 10.6379C26.6167 10.2784 26.7059 9.92605 26.8286 9.58447C26.8948 9.39974 26.8497 9.19316 26.7127 9.05421L22.5862 4.86763C22.4492 4.72868 22.2453 4.68316 22.0635 4.75026C20.8197 5.20947 19.4492 5.20947 18.2049 4.75026C18.0233 4.68316 17.8194 4.72868 17.6825 4.86763L4.79967 17.9371C4.66296 18.0761 4.61757 18.2826 4.68398 18.4674C5.13663 19.7295 5.13663 21.1197 4.68398 22.3816C4.61757 22.5663 4.66296 22.7729 4.79967 22.9118L8.92645 27.0984C9.02165 27.1947 9.14902 27.2463 9.27872 27.2463C9.33578 27.2463 9.39337 27.2363 9.44888 27.2158C10.693 26.7566 12.0634 26.7566 13.3074 27.2158C13.4895 27.2829 13.6932 27.2371 13.8301 27.0982L16.8381 24.0466C16.8874 24.6955 17.0345 25.3168 17.2641 25.8958L12.9093 30.3137C12.5005 30.7287 11.9568 30.9571 11.3783 30.9571C10.7998 30.9571 10.2561 30.7287 9.84706 30.3137L1.63033 21.9779C1.22125 21.5632 0.996094 21.0113 0.996094 20.4245C0.996094 19.8379 1.22125 19.2861 1.63033 18.8713L16.1889 4.10158C16.3834 3.90421 16.3834 3.58447 16.1889 3.38711C15.9946 3.18974 15.6791 3.18974 15.4846 3.38711L0.926056 18.1566C0.328918 18.7624 0 19.5679 0 20.4245C0 21.2813 0.328918 22.0866 0.926056 22.6924L9.14279 31.0284C9.73993 31.6339 10.5337 31.9676 11.3783 31.9676C12.2226 31.9676 13.0167 31.6339 13.6138 31.0284L17.7367 26.8458C18.828 28.6424 20.7849 29.8424 23.0134 29.8424C24.3537 29.8424 25.6292 29.4153 26.7023 28.6068C26.9233 28.4405 26.9695 28.1239 26.8053 27.9C26.6414 27.6758 26.3296 27.6292 26.1086 27.7955C25.2084 28.4734 24.1382 28.8318 23.0134 28.8318C20.1473 28.8318 17.8156 26.4663 17.8156 23.5587C17.8156 20.6511 20.1473 18.2855 23.0134 18.2855C25.8795 18.2855 28.2112 20.6511 28.2112 23.5587C28.2112 24.4911 27.9684 25.4068 27.5093 26.2074C27.3708 26.4484 27.4512 26.7576 27.6891 26.8982C27.9267 27.0384 28.2317 26.9568 28.37 26.7158C28.9178 25.7611 29.2073 24.6692 29.2073 23.5587C29.2073 23.3437 29.1967 23.1313 29.1757 22.9218C30.4467 22.63 31.6026 21.9347 32.4698 20.9292C33.4566 19.7847 34 18.3163 34 16.7942C34 14.7339 33.0177 12.9024 31.5035 11.7558ZM19.2594 18.5642C20.4897 16.8479 20.3429 14.4245 18.8179 12.8774C18 12.0476 16.9128 11.5908 15.7564 11.5908C14.5998 11.5908 13.5126 12.0476 12.6947 12.8774C11.0068 14.5897 11.0068 17.3763 12.6947 19.0889C13.5126 19.9184 14.5998 20.3753 15.7564 20.3753C16.6413 20.3753 17.4851 20.1071 18.1992 19.6097C17.5338 20.4432 17.0739 21.4518 16.8986 22.5563L13.344 26.1624C12.0652 25.7605 10.6911 25.7605 9.41257 26.1624L5.72235 22.4187C6.11871 21.1216 6.11871 19.7276 5.72235 18.4305L18.1686 5.80368C19.4474 6.20579 20.8215 6.20553 22.1001 5.80368L25.7903 9.54737C25.6507 10.0042 25.561 10.4753 25.52 10.9539C23.2326 11.8787 21.6119 14.1479 21.6119 16.7942C21.6119 17.0063 21.6238 17.2187 21.6445 17.43C20.7641 17.6321 19.9543 18.0255 19.2594 18.5642ZM18.1133 18.3745C17.4838 19.0132 16.6467 19.365 15.7564 19.365C14.8659 19.365 14.0288 19.0132 13.3993 18.3745C12.0994 17.0558 12.0994 14.9105 13.3993 13.5918C14.0288 12.9532 14.8659 12.6013 15.7564 12.6013C16.6467 12.6013 17.4838 12.9532 18.1133 13.5918C19.4132 14.9105 19.4132 17.0558 18.1133 18.3745ZM28.2188 20.1566C28.1371 20.0282 28.0507 19.9032 27.9601 19.7816C28.1599 19.7155 28.3041 19.5258 28.3041 19.3013V19.0511C28.9747 18.9624 29.4945 18.3805 29.4945 17.6763C29.4945 16.9113 28.881 16.2887 28.1267 16.2887H27.4852C27.2803 16.2887 27.1135 16.1195 27.1135 15.9116C27.1135 15.7037 27.2803 15.5345 27.4852 15.5345H28.8156C29.0906 15.5345 29.3137 15.3082 29.3137 15.0292C29.3137 14.7503 29.0906 14.5239 28.8156 14.5239H28.3041V14.2868C28.3041 14.0076 28.081 13.7816 27.8061 13.7816C27.5308 13.7816 27.308 14.0076 27.308 14.2868V14.5371C26.6375 14.6255 26.1174 15.2076 26.1174 15.9116C26.1174 16.6768 26.7309 17.2992 27.4852 17.2992H28.1267C28.3316 17.2992 28.4984 17.4684 28.4984 17.6763C28.4984 17.8845 28.3316 18.0534 28.1267 18.0534H26.7962C26.6206 18.0534 26.4665 18.1461 26.3781 18.2853C25.818 17.9163 25.196 17.6366 24.5317 17.4661C24.4876 17.2447 24.4647 17.0197 24.4647 16.7939C24.4647 14.925 25.9635 13.4042 27.8061 13.4042C29.6483 13.4042 31.1471 14.925 31.1471 16.7939C31.1474 18.5261 29.882 19.9511 28.2188 20.1566ZM28.9954 21.9276C28.9197 21.6424 28.825 21.3647 28.7119 21.0968C30.6859 20.6758 32.1435 18.9116 32.1435 16.7939C32.1435 14.3676 30.1977 12.3937 27.8061 12.3937C25.4144 12.3937 23.4686 14.3676 23.4686 16.7939C23.4686 16.9613 23.4785 17.1282 23.4972 17.2939C23.3376 17.2816 23.1763 17.275 23.0134 17.275C22.885 17.275 22.7576 17.2795 22.631 17.2874C22.616 17.1234 22.608 16.9584 22.608 16.7939C22.608 13.8863 24.9397 11.5208 27.8061 11.5208C30.6722 11.5208 33.0039 13.8863 33.0039 16.7942C33.0039 19.2463 31.3098 21.3763 28.9954 21.9276Z" fill="url(#paint0_linear)"/>
<defs>
<linearGradient id="paint0_linear" x1="-17" y1="15.9838" x2="14.907" y2="49.9193" gradientUnits="userSpaceOnUse">
<stop stop-color="#5C2774"/>
<stop offset="0.499685" stop-color="#335CC5"/>
<stop offset="1" stop-color="#637FFD"/>
</linearGradient>
</defs>
</svg>
